{
    "name": "Barrel_Hybrid_PPB",
    "HCC": {
        "ID": 2,

        "regs": {
            "Delay1": "02800003",
            "Delay2": "44444444",
            "Delay3": "00000444",
            "PLL1": "00ff3b05",

            "DRV1": "0fffffff",
            "DRV2": "00000014",

            "ICenable": "000007fe",
            "OPmode": "00030001",
            "OPmodeC": "00030001",
            "Cfg1": "00000000",

            "Cfg2": "0000018e",
            "ExtRst": "00710003",
            "ExtRstC": "00710003",
            "ErrCfg": "00000000",
            "ADCcfg": "00406600"
        }
    },
    "ABCs": {
        "IDs": [0, 1, 2, 3, 4, 5, 6, 7, 8, 9],

        "common": {
            "ADCS1": "00d035ed",
            "ADCS2": "01801036",
            "ADCS3": "0993800c",
            "CREG0": "01900038",
            "CREG1": "43000200"
        },

        "comment": "These are the sub-regs that are most likely to need tweaking",
        "subregs": [{"STR_DEL": 12, "BTRANGE": 1, "BVT": 24, "D_S_DEC": 7, "A_S_DEC": 11},
                    {"STR_DEL": 13, "BTRANGE": 2, "BVT": 24, "D_S_DEC": 8, "A_S_DEC": 12},
                    {"STR_DEL": 14, "BTRANGE": 3, "BVT": 25, "D_S_DEC": 7, "A_S_DEC": 13},
                    {"STR_DEL": 21, "BTRANGE": 1, "BVT": 26, "D_S_DEC": 8, "A_S_DEC": 12},
                    {"STR_DEL": 20, "BTRANGE": 2, "BVT": 27, "D_S_DEC": 7, "A_S_DEC": 11},
                    {"STR_DEL": 22, "BTRANGE": 3, "BVT": 28, "D_S_DEC": 8, "A_S_DEC": 12},
                    {"STR_DEL": 23, "BTRANGE": 1, "BVT": 29, "D_S_DEC": 7, "A_S_DEC": 13},
                    {"STR_DEL": 20, "BTRANGE": 2, "BVT": 20, "D_S_DEC": 8, "A_S_DEC": 12},
                    {"STR_DEL": 22, "BTRANGE": 3, "BVT": 21, "D_S_DEC": 7, "A_S_DEC": 11},
                    {"STR_DEL": 21, "BTRANGE": 0, "BVT": 22, "D_S_DEC": 8, "A_S_DEC": 12}],

        "masked": [null, null, null, null, null, null, null, null, null, null],
        "trims": [16, 16, 16, 16, 16, 16, 16, 16, 16, 16],

        "Parameters": {
            "TrimTarget": [
                {"BCAL": 0, "BVT": [15, 15, 15, 15, 15, 15, 15, 15, 15, 15]}
            ],
            "BCALtoV": {
                "DAC": [6, 22, 38, 48, 62, 74, 100, 152, 204, 308],
                "values": [0.0032, 0.00832167, 0.01343333, 0.01663333, 0.02111667, 0.02494833, 0.03326667, 0.04988333, 0.06651667, 0.09975]
            }
        },

        "comment": "Useful to end with a comment"
    }
}
